{
    "apps":[
    {
        "name":"presence-monitor",
        "cwd":"../..",
        "script":"java",
        "args":[
            "-jar",
            "connectors/adapters/kafka/kafka-presence/target/kafka-presence-2.3.6.jar"
        ],
        "watch":[
            "connectors/adapters/kafka/kafka-presence/target/kafka-presence-2.3.6.jar"
        ],
        "node_args":[],
        "exec_interpreter":"",
        "exec_mode":"fork"
     }
   ]
}
